{
"use_internal_storage":false,
"token":"79133c2294d347b79f7ff3307a0075ee",
"open_token":"",
"open_api_url":"get|https://adrive.xdow.net/oauth/access_token",
"oauth_client_id":"",
"oauth_client_secret":"",
"oauth_auth_url":"",
"oauth_refresh_url":"",
"thread_limit":32,
"is_vip":true,
"vip_thread_limit":32,
"vod_flags":"4kz|auto",
"quark_thread_limit":32,
"quark_is_vip":false,
"quark_vip_thread_limit":32,
"quark_flags":"4kz|auto",
"uc_thread_limit":0,
"uc_is_vip":false,
"uc_vip_thread_limit":0,
"uc_flags":"4kz|auto",
"thunder_thread_limit":2,
"thunder_is_vip":false,
"thunder_vip_thread_limit":2,
"thunder_flags":"4k|4kz|auto",
"aliproxy":"",
"aliproxy_url":"",
"proxy":"",
"danmu":true,
"quark_danmu":true,
"quark_cookie":"_UP_A4A_11_=wb9661946d4e412c9e7123fc91132a0e; _UP_D_=pc; _UP_F7E_8D_=0z44HdIBxZYb2%2B%2BYtbn%2FEeFhrBCAPmyesa0uSoI0lUGh8Pgg2WvQFE88hTHM1TzWK%2FaQCLL1gZJD8CizlW8ST3INEc0DyOipgbVemTID4d%2FJfd6YLm4Bw0KoWmdkn3NKr%2FkWp7W34NZlhgFKUTD%2BEalz%2B%2FFr7vwn75FlhnOTYQk1e9bRjiBoAwUd%2Fruv44%2BOI2c8TCtjbh8S3rSgjaui1HY5ITnJa4IqamAG646kaPWLlBPf7OXKwxJ9tXWSwXlfsdWlbyqZSl%2FPKIZtLIWNs6Oxmww5uVe6h3tVRpMRxOAlNVWbuA7cEaAINyd%2BnUvWo9ZvT9tODUHTX%2BTcqN5XbcOk1ra3INMiXbnEFWx%2Fk%2BcjOk0NMklkPPJhcjIY9laLkPvhSjPtLS9YIGPd1Sag%2FoLmdhpsOV%2F1VxufgE6%2FXhCsSL5OwizVU2TxvjF8lUdBo8aG5K1wGd3iDExO0cma7g%3D%3D; _UP_30C_6A_=st96662019bdt8lvhq2e2fgep7tf1nk8; _UP_TS_=sg180c0acac1e51dcc365edc2a81a01c5b0; _UP_E37_B7_=sg180c0acac1e51dcc365edc2a81a01c5b0; _UP_TG_=st96662019bdt8lvhq2e2fgep7tf1nk8; _UP_335_2B_=1; __pus=68929a6ae65c88d513d77acda9b40f36AATW/n382igIOBZ/gIq2ewe7gtGV0YeWbZwDNatLp0g0vlD/wJF2Nr3OR6lzlI5B0L4wCP0yCjkUTRs8Ovre1RP2; __kp=2621c520-2c83-11ef-a624-e948d444f2bc; __kps=AAQ5DzPEfaieK4vleXF/5DfF; __ktd=f/ojyOeQF7fIiLJz5WlqSw==; __uid=AAQ5DzPEfaieK4vleXF/5DfF; tfstk=fFjINY9PpaZM-MW6ZeewcJwGnCxU36Z4dY9RnTnEeHKK2_6k_puU-UP55_Cw9MzHT1O53TmyT9-LF_1AOU55EJvJw_CWawza09XHq3FVNorVKqOYZfCBJDHTeL9r2LjkJlWHq3Fati5W89ffsKu4V3e6XLJ-23nRwFH9sLv-9LnLCOdMe3pJeUdt6K9KyXdpgCVvIzdcdRGbOlTjGoXB10nxFC8paoAq20I6kQOApxn-2G9B-g7uYjGBVaBcP3K_N4ARjQTf11FxuBQc3hdOwXgNdHsdPes7ZcdRkg-Z0Ig_74gk90p6gRwsr4W-1fRXlYLxwepMQG2_C45eJdv6gRwsr4YpIdR3CRgPT",
"uc_cookie":"",
"thunder_username":"",
"thunder_password":"",
"thunder_captchatoken":"",
"yd_auth":"",
"yd_thread_limit":4,
"yd_flags":"auto|4kz",
"yd_danmu":true,
"pikpak_username":"",
"pikpak_password":"",
"pikpak_flags":"4k|auto",
"pikpak_thread_limit":2,
"pikpak_vip_thread_limit":2,
"pikpak_proxy":"",
"pikpak_proxy_onlyapi":false,
"pikpak_danmu":true
}
