{
  "spider": "./jar/dongchen0615.jar",
  "wallpaper": "https://vi2.xiu123.cn/live/2023/08/15/17/1001v1692091979226192412.png",
  "sites": [
    {
      "key": "东辰",
      "name": "东辰4K┃加qq群757506243防失联，微信公众号：东方精英汇",
      "type": 3,
      "api": "csp_Wextudou",
      "searchable": 1,
      "quickSearch": 1,
      "filterable": 1
    },
    {
      "key":"Wexconfig",
      "name":"东辰4K配置中心",
      "type":3,
      "api":"csp_Wexconfig",
      "changeable":0,
      "style":{
      "type":"rect",
      "ratio":1.43
     }
    },
    {
      "key": "豆瓣",
      "name": "豆瓣🧁排行",
      "type": 3,
      "api": "csp_Douban",
      "searchable": 0,
      "quickSearch": 0,
      "filterable": 0
    },
    {
      "key": "配置中心ok",
      "name": "弹幕线路配置中心",
      "type": 3,
      "api": "csp_Config",
      "jar": "./lib/dongchenok.jar",
      "searchable": 0,
      "changeable": 0,
      "style": {
        "type": "rect",
        "ratio": 1.43
      }
    },
    {
      "key": "配置中心",
      "name": "转存及夸克🏬配置",
      "type": 3,
      "api": "csp_Config",
      "jar": "./lib/pg0426.jar",
      "searchable": 0,
      "changeable": 0,
      "style": {
        "type": "rect",
        "ratio": 1
      },
      "ext": "./lib/tokenm.json"
    },
    {
      "key": "土豆弹幕版",
      "name": "土豆🥔弹幕4K",
      "type": 3,
      "api": "csp_Wobg",
      "jar": "./lib/dongchenok.jar",
      "searchable": 1,
      "filterable": 1,
      "changeable": 1,
      "ext": {
        "token": "file://TV/ali_token.txt",
        "cookie": "file://TV/quark_cookie.txt",
        "site": "https://tudou.lvdoui.top",
        "danmu": true
      },
      "timeout": 25
    },
    {
      "key": "玩偶弹幕版",
      "name": "玩偶⚗️弹幕4K",
      "type": 3,
      "api": "csp_Wogg",
      "jar": "./lib/dongchenok.jar",
      "searchable": 1,
      "filterable": 1,
      "changeable": 1,
      "ext": {
        "token": "file://TV/ali_token.txt",
        "cookie": "file://TV/quark_cookie.txt",
        "site": "https://www.wogg.net",
        "danmu": true
      },
      "timeout": 25
    },
    {
      "key": "开心玩偶",
      "name": "开心🍹臻享4K",
      "type": 3,
      "api": "csp_XYQHikerAL",
      "jar": "./lib/dongchen.jar",
      "searchable": 1,
      "quickSearch": 1,
      "filterable": 1,
      "ext": "./lib/kaixin.json"
    },
    {
      "key": "csp_XYQHikerAL_多多",
      "name": "多多🍀臻享4K",
      "type": 3,
      "api": "csp_XYQHikerAL",
      "jar": "./lib/dongchen.jar",
      "searchable": 1,
      "quickSearch": 1,
      "filterable": 1,
      "ext": "./lib/duoduo.json"
    },
    {
       "key": "yyds",
       "name": "夸克🏆弹幕4K",
       "type": 3,
       "api": "csp_Wobg",
       "jar": "./jar/PG.jar",
       "changeable": 1,
       "filterable": 1,
       "timeout": 60,
       "ext": "./lib/tokenm.json$$$https://tudou.lvdoui.top/$$$proxy$$$1$$$./json/wogg.json"
        },
    {
      "key": "阿里合集",
      "name": "云盘🧓臻享4K",
      "type": 3,
      "api": "csp_AliShare",
      "jar": "./lib/dongchenok.jar",
      "searchable": 1,
      "changeable": 0,
      "filterable": 0,
      "indexs": 0,
      "ext": {
        "token": "file://TV/ali_token.txt",
        "share": "file://TV/阿里集合.json"
      },
      "style": {
        "type": "list"
      },
      "timeout": 30
    },
    {
      "key": "新6V",
      "name": "磁力🧲慎用4K",
      "type": 3,
      "api": "csp_Xb6v",
      "jar": "./lib/pg0328.jar",
      "searchable": 1,
      "changeable": 1,
      "timeout": 60,
      "ext": "http://127.0.0.1:9978/file/XYQTVBox/tokenm.json$$$https://www.66ss.org$$$null$$$1"
    },
    {
      "key": "花蕊影视",
      "name": "花蕊🏵️影视",
      "type": 3,
      "api": "csp_Wexhuaruitv",
      "jar": "./lib/jiazi.jar",
      "playerType": 1,
      "searchable": 1,
      "changeable": 1
    },
    {
      "key": "甲子影视",
      "name": "甲子🌲影视",
      "type": 3,
      "api": "csp_Wexjiazitv",
      "jar": "./lib/jiazi.jar",
      "playerType": 1,
      "searchable": 1,
      "changeable": 1
    },
    {
      "key": "河马短剧",
      "name": "河马🦛短剧",
      "type": 3,
      "api": "csp_Wexduanjuhema",
      "jar": "./lib/jiazi.jar",
      "searchable": 1,
      "changeable": 1
    },
    {
            "key": "酷看弹幕",
            "name": "酷看😎弹幕",
            "type": 3,
            "api": "csp_Kkys",
            "jar": "./lib/dongchenok.jar",
            "searchable": 1,
            "quickSearch": 1,
            "filterable": 1,
            "ext": {
                "danmu": true
            }
        },
        {
            "key": "小苹果弹幕",
            "name": "小苹果🍎弹幕",
            "jar": "./lib/dongchenok.jar",
            "type": 3,
            "api": "csp_Xpg",
            "playerType": 1,
            "searchable": 1,
            "quickSearch": 1,
            "filterable": 1,
            "ext": {
                "danmu": true
            }
        },
        {
            "key": "南瓜弹幕",
            "name": "南瓜🎃弹幕",
            "type": 3,
            "api": "csp_Nangua",
            "jar": "./lib/dongchenok.jar",
            "searchable": 1,
            "quickSearch": 1,
            "filterable": 1,
            "ext": {
                "danmu": true
            }
        },
        {
            "key": "天天弹幕",
            "name": "天天🌱弹幕",
            "type": 3,
            "api": "csp_TianTian",
            "jar": "./lib/dongchenok.jar",
            "searchable": 1,
            "quickSearch": 1,
            "filterable": 1,
            "ext": {
                "danmu": true
            }
        },

    {
      "key": "厂长蓝光",
      "name": "厂长🏭蓝光",
      "type": 3,
      "api": "./lib/drpy.min.js",
      "searchable": 1,
      "quickSearch": 1,
      "changeable": 1,
      "ext": "./lib/cangzan.js"
    },
    {
      "key": "黑木耳资源",
      "name": "木耳🥑蓝光",
      "type": 1,
      "api": "https://json.heimuer.tv/api.php/provide/vod/?ac=list",
      "searchable": 1,
      "quickSearch": 1,
      "filterable": 0,
      "categories": [
        "国产剧",
        "韩剧",
        "动画电影",
        "网络电影",
        "动作",
        "冒险",
        "爱情",
        "虐恋",
        "逆袭",
        "穿越",
        "重生",
        "港剧",
        "泰剧",
        "日剧",
        "欧美剧",
        "国产综艺",
        "韩国综艺",
        "日本综艺",
        "欧美综艺",
        "奇幻",
        "灾难",
        "科幻",
        "恐怖",
        "剧情",
        "战争",
        "喜剧"
      ]
    },
    {
      "key": "csp_xml_ikun",
      "name": "爱坤🐔蓝光",
      "type": 1,
      "api": "https://ikunzyapi.com/api.php/provide/vod/from/ikm3u8/at/json",
      "searchable": 1,
      "quickSearch": 1,
      "filterable": 1,
      "playerType": 2,
      "categories": [
        "国产剧",
        "韩国剧",
        "泰国剧",
        "欧美剧",
        "香港剧",
        "台湾剧",
        "日本剧",
        "海外剧",
        "国产动漫",
        "日韩动漫",
        "欧美动漫",
        "大陆综艺",
        "港台综艺",
        "日韩综艺",
        "动作片",
        "喜剧片",
        "科幻片",
        "恐怖片",
        "爱情片",
        "剧情片",
        "战争片",
        "记录片",
        "犯罪片",
        "惊悚片",
        "古装片",
        "灾难片",
        "历史片",
        "其他片",
        "悬疑片",
        "奇幻片",
        "动画片",
        "欧美综艺"
      ]
    },
    {
      "key": "酷看",
      "name": "酷看💡蓝光",
      "type": 3,
      "api": "csp_Wexkukantv",
      "jar": "./lib/kukanys.jar",
      "searchable": 1,
      "quickSearch": 1,
      "changeable": 1
    },
    {
      "key": "荐片",
      "name": "荐片🎬蓝光",
      "type": 3,
      "api": "./lib/drpy.min.js",
      "searchable": 1,
      "changeable": 1,
      "ext": "./lib/jianpian.js"
    },
    {
      "key": "乐视",
      "name": "乐视🏜蓝光",
      "type": 1,
      "api": "https://leshiapi.com/api.php/provide/vod/at/json/",
      "playUrl": "",
      "searchable": 1,
      "changeable": 1,
      "categories": [
        "国产剧",
        "韩国剧",
        "短剧",
        "泰国剧",
        "欧美剧",
        "香港剧",
        "台湾剧",
        "日剧",
        "海外剧",
        "记录片",
        "反转爽剧",
        "女频恋爱",
        "古装仙侠",
        "年代穿越",
        "脑洞悬疑",
        "现代都市",
        "大陆综艺",
        "港台综艺",
        "日韩综艺",
        "欧美综艺",
        "国产动漫",
        "日本动漫",
        "欧美动漫",
        "电影解说",
        "动作片",
        "冒险片",
        "动画片",
        "喜剧片",
        "爱情片",
        "奇幻片",
        "灾难片",
        "悬疑片",
        "科幻片",
        "恐怖片",
        "剧情片",
        "战争片",
        "犯罪片",
        "其他片"
      ]
    },
    {
      "key": "苹果",
      "name": "小苹果🍎蓝光",
      "type": 3,
      "api": "csp_LiteApple",
      "jar": "./lib/xpg.jar",
      "playerType": 1,
      "searchable": 1,
      "quickSearch": 1,
      "changeable": 1
    },
    {
      "key": "量子资源",
      "name": "量子🥑蓝光",
      "type": 1,
      "api": "http://cj.lziapi.com/api.php/provide/vod/",
      "searchable": 1,
      "quickSearch": 1,
      "filterable": 0,
      "categories": [
        "国产剧",
        "国产动漫",
        "泰国剧",
        "韩国剧",
        "短剧",
        "香港剧",
        "欧美剧",
        "台湾剧",
        "日本剧",
        "海外剧",
        "日韩动漫",
        "欧美动漫",
        "港台动漫",
        "海外动漫",
        "大陆综艺",
        "日韩综艺",
        "欧美综艺",
        "动作片",
        "冒险片",
        "爱情片",
        "奇幻片",
        "灾难片",
        "科幻片",
        "恐怖片",
        "剧情片",
        "战争片",
        "喜剧片"
      ]
    },
    {
      "key": "新视觉影院",
      "name": "视觉🔥影院",
      "type": 3,
      "api": "csp_XBPQ",
      "jar": "./lib/dongchen.jar",
      "searchable": 1,
      "quickSearch": 1,
      "filterable": 1,
      "ext": "./lib/xinshijue.json"
    },
    {
      "key": "美剧迷",
      "name": "美剧迷🐳影视",
      "type": 3,
      "api": "csp_Meijumi",
      "jar": "./lib/pg0318.jar",
      "quickSearch": 1,
      "changeable": 1,
      "filterable": 1,
      "timeout": 60,
      "ext": "./lib/tokenm.json$$$https://www.meijumi.xyz/$$$null$$$1"
    },
    {
      "key": "茶狐影视",
      "name": "茶狐🍹影视",
      "type": 3,
      "api": "csp_XBPQ",
      "jar": "./lib/dongchen.jar",
      "searchable": 1,
      "quickSearch": 1,
      "filterable": 1,
      "ext": "./lib/jqqys.json"
    },
    {
      "key": "短剧天堂",
      "name": "短剧🥰天堂",
      "type": 3,
      "api": "csp_XBPQ",
      "jar": "./lib/dongchen.jar",
      "playerType": 1,
      "searchable": 1,
      "changeable": 1,
      "ext": "./lib/duanjutt.json"
    },
    {
      "key": "星芽短剧",
      "name": "星芽🍡短剧",
      "type": 3,
      "api": "csp_AppXY",
      "jar": "./lib/djuzl.jar",
      "searchable": 1,
      "quickSearch": 0,
      "filterable": 0
    },
    {
      "key": "动漫巴士",
      "name": "动漫🚌巴士",
      "type": 3,
      "api": "csp_XBPQ",
      "jar": "./lib/dongchen.jar",
      "searchable": 1,
      "quickSearch": 1,
      "filterable": 1,
      "ext": "./lib/dmbs.json"
    },
    {
      "key": "有声小说js",
      "name": "有声🎧小说",
      "type": 3,
      "api": "./lib/drpy2.min.js",
      "ext": "./lib/有声小说吧.js",
      "style": {
        "type": "rect",
        "ratio": 1
      },
      "searchable": 0,
      "quickSearch": 0,
      "changeable": 0
    },
    {
      "key": "农民影视",
      "name": "农民👨‍🌾直连",
      "type": 3,
      "api": "csp_WexNmys",
      "jar": "./lib/nmys.jar",
      "searchable": 1,
      "changeable": 1
    },
    {
      "key": "Vidhub",
      "name": "Vid🌃影视",
      "type": 3,
      "api": "csp_XBPQ",
      "jar": "./lib/dongchen.jar",
      "searchable": 1,
      "quickSearch": 1,
      "filterable": 1,
      "ext": "./lib/vid.json"
    },
    {
      "key": "饭团影视",
      "name": "饭团🍚影视",
      "type": 3,
      "api": "csp_XBPQ",
      "jar": "./lib/dongchen.jar",
      "searchable": 1,
      "quickSearch": 1,
      "filterable": 1,
      "ext": "./lib/fantuan.json"
    },
    {
      "key": "明日影视",
      "name": "明日☀影视",
      "type": 3,
      "api": "csp_WexMingriys",
      "jar": "./lib/sp.jar",
      "searchable": 1,
      "changeable": 1
    },
    {
      "key": "zxzj",
      "name": "在线🍊外剧",
      "type": 3,
      "api": "csp_Zxzj",
      "jar": "./lib/fan0313.txt",
      "timeout": 15,
      "searchable": 1,
      "quickSearch": 1,
      "changeable": 1,
      "ext": "https://www.zxzja.com/"
    },
    {
      "key": "短视频",
      "name": "网红📱美女",
      "type": 3,
      "api": "./lib/drpy2.min.js",
      "searchable": 0,
      "quickSearch": 0,
      "filterable": 0,
      "ext": "./lib/duanshiping.js"
    },
    {
      "key": "演唱会",
      "name": "音乐🎻鉴赏",
      "type": 3,
      "api": "csp_Bili",
      "searchable": 0,
      "quickSearch": 0,
      "ext": "./lib/yinyue.json"
    },
    {
      "key": "JustLive",
      "name": "游戏👑直播",
      "type": 3,
      "api": "./lib/drpy.min.js",
      "searchable": 0,
      "changeable": 0,
      "ext": "./lib/justlive.js"
    },
    {
      "key": "yyt",
      "name": "音悦台🎵MV",
      "type": 3,
      "api": "./lib/yinyuetai.js",
      "searchable": 0
    },
    {
      "key": "剧圈影视",
      "name": "剧圈🔥蓝光",
      "type": 3,
      "api": "csp_XBPQ",
      "jar": "./lib/dongchen.jar",
      "searchable": 1,
      "quickSearch": 1,
      "filterable": 1,
      "ext": "./lib/jqqzx.json"
    },
    {
      "key": "利播蓝光",
      "name": "利播🌕韩剧",
      "type": 3,
      "api": "./lib/drpy.min.js",
      "searchable": 0,
      "quickSearch": 1,
      "changeable": 1,
      "ext": "./lib/libvio.js"
    },
    {
      "key": "Bdys_spider",
      "name": "哔滴💧直连",
      "api": "csp_Bdys01",
      "jar": "./lib/fix140412.jar",
      "type": 3,
      "filterable": 1,
      "quickSearch": 1,
      "searchable": 1,
      "ext": ""
    },
    {
      "key": "csp_Kuaikan",
      "name": "快看🏖直连",
      "type": 3,
      "api": "csp_Kuaikan",
      "jar": "./lib/PandaQ240216.jar",
      "searchable": 1,
      "quickSearch": 1,
      "filterable": 1
    },
    {
      "key": "子子影视",
      "name": "子子🐰蓝光",
      "type": 3,
      "api": "csp_XBPQ",
      "jar": "./lib/dongchen.jar",
      "playerType": 1,
      "searchable": 1,
      "quickSearch": 1,
      "filterable": 1,
      "ext": "./lib/zizi.json"
    },
    {
      "key": "4K影院",
      "name": "影院☘️蓝光",
      "type": 3,
      "api": "csp_XBPQ",
      "jar": "./lib/dongchen.jar",
      "searchable": 1,
      "quickSearch": 1,
      "filterable": 1,
      "ext": "./lib/4kvm.json"
    },
    {
      "key": "秒播",
      "name": "秒播🐳蓝光",
      "type": 3,
      "api": "csp_XBPQ",
      "jar": "./lib/dongchen.jar",
      "playerType": 1,
      "searchable": 1,
      "quickSearch": 1,
      "filterable": 1,
      "ext": "./json/miaobozx.json"
    },
    {
      "key": "飞刀",
      "name": "飞刀🏂蓝光",
      "type": 1,
      "api": "http://www.feidaozy.com/api.php/provide/vod?",
      "searchable": 1,
      "changeable": 1,
      "categories": [
        "国产剧",
        "韩剧",
        "欧美剧",
        "泰剧",
        "纪录片",
        "国产综艺",
        "国产动漫",
        "韩国综艺",
        "日本动漫",
        "动画电影",
        "网络电影",
        "动作片",
        "喜剧片",
        "灾难片",
        "爱情片",
        "科幻片",
        "恐怖片",
        "剧情片",
        "战争片",
        "港台剧",
        "日韩剧",
        "欧美剧",
        "惊悚片",
        "犯罪片",
        "冒险片",
        "悬疑片",
        "武侠片",
        "奇幻片",
        "韩国动漫"
      ]
    },
    {
      "key": "美柏影视",
      "name": "美柏🏝蓝光",
      "type": 3,
      "api": "csp_XBPQ",
      "jar": "./lib/dongchen.jar",
      "searchable": 1,
      "changeable": 1,
      "ext": "./lib/meibai.json"
    },
    {
      "key": "可可影视",
      "name": "可可🦙蓝光",
      "type": 3,
      "playerType": 2,
      "searchable": 1,
      "api": "csp_XBPQ",
      "jar": "./lib/dongchen.jar",
      "ext": "./lib/kkys.json"
    },
    {
      "key": "黑狐影视",
      "name": "黑狐🦊蓝光",
      "type": 3,
      "api": "csp_XBPQ",
      "jar": "./lib/dongchen.jar",
      "searchable": 1,
      "changeable": 1,
      "ext": "./lib/heihu.json"
    },
    {
      "key": "素白白影视",
      "name": "素白🛰️蓝光",
      "type": 3,
      "api": "csp_XBPQ",
      "jar": "./lib/dongchen.jar",
      "searchable": 1,
      "changeable": 1,
      "ext": "./lib/subaibai.json"
    },
    {
      "key": "原创",
      "name": "原创🕵蓝光",
      "type": 3,
      "api": "csp_YCyz",
      "jar": "./lib/fty.jar",
      "timeout": 15,
      "searchable": 1,
      "quickSearch": 1,
      "changeable": 1
    },
    {
      "key": "南瓜影视",
      "name": "南瓜🎃影视",
      "type": 3,
      "api": "csp_WexNgys",
      "jar": "./lib/nangua.jar",
      "searchable": 1,
      "quickSearch": 1,
      "filterable": 0
    },
    {
      "key": "低端影视",
      "name": "低端⛄影视",
      "type": 3,
      "api": "./lib/drpy2.min.js",
      "searchable": 1,
      "changeable": 1,
      "ext": "./lib/diduan.js"
    },
    {
      "key": "天天影视",
      "name": "天天🍦影视",
      "type": 3,
      "api": "csp_AppTT",
      "jar": "./lib/nmys.jar",
      "searchable": 1,
      "quickSearch": 1,
      "filterable": 1
    },
    {
      "key": "魔力高清",
      "name": "魔力💥高清",
      "type": 3,
      "api": "./lib/drpy2.min.js",
      "searchable": 0,
      "quickSearch": 0,
      "filterable": 0,
      "ext": "./lib/HDmoli.js"
    },
    {
      "key": "Lib",
      "name": "立播🌟直连",
      "type": 3,
      "api": "csp_Libvio",
      "jar": "./lib/fan0313.txt",
      "timeout": 15,
      "searchable": 0,
      "quickSearch": 1,
      "changeable": 1,
      "ext": "https://www.libvio.pw/"
    },
    {
      "key": "csp_Nkdy",
      "name": "耐看🏔直连",
      "api": "csp_Nkdy",
      "jar": "./lib/naikan.jar",
      "type": 3,
      "playerType": "2"
    },
    {
      "key": "csp_Mp4Mov",
      "name": "Mp4电影🧲磁力",
      "type": 3,
      "api": "csp_Mp4Mov",
      "jar": "./lib/dongchen.jar",
      "searchable": 1,
      "quickSearch": 1,
      "filterable": 1
    },
    {
      "key": "csp_Xunlei8",
      "name": "迅雷吧🧲磁力",
      "type": 3,
      "api": "csp_Xunlei8",
      "jar": "./lib/dongchen.jar",
      "searchable": 1,
      "quickSearch": 1,
      "filterable": 1
    },
    {
      "key": "csp_Yj1211",
      "name": "网红📱直播",
      "type": 3,
      "api": "csp_Yj1211",
      "jar": "./lib/dongchen.jar",
      "searchable": 1,
      "quickSearch": 1,
      "filterable": 1
    },
    {
      "key": "两个BT",
      "name": "BT2🥪秒播",
      "type": 3,
      "api": "csp_Wexbttwo",
      "jar": "./lib/nmys.jar",
      "searchable": 1,
      "changeable": 1
    },
    {
      "key": "csp_duoju",
      "name": "星辰🕌影院",
      "type": 3,
      "api": "csp_XBPQ",
      "jar": "./lib/dongchen.jar",
      "playerType": 1,
      "searchable": 1,
      "quickSearch": 1,
      "filterable": 0,
      "ext": "./lib/xinchen.json"
    },
    {
      "key": "韩剧影院",
      "name": "韩剧💖TV",
      "type": 3,
      "api": "csp_XBPQ",
      "jar": "./lib/dongchen.jar",
      "searchable": 1,
      "quickSearch": 1,
      "filterable": 1,
      "ext": "./lib/hanju.json"
    },
    {
      "key": "meowtv_syys",
      "name": "速映🐨影视",
      "type": 3,
      "api": "csp_XBPQ",
      "jar": "./lib/dongchen.jar",
      "searchable": 1,
      "quickSearch": 1,
      "filterable": 1,
      "ext": "./lib/suying.json"
    },
    {
      "key": "喵次元",
      "name": "喵次元🍓动漫",
      "type": 3,
      "api": "./lib/drpy.min.js",
      "searchable": 1,
      "changeable": 1,
      "ext": "./lib/miao.js"
    },
    {
      "key": "看球",
      "name": "88⚾看球",
      "type": 3,
      "api": "csp_Kanqiu",
      "jar": "./lib/PandaQ240309.jar",
      "searchable": 1,
      "quickSearch": 1,
      "changeable": 0,
      "gridview": 3,
      "style": {
        "type": "list"
      }
    },
    {
      "key": "310js",
      "name": "体育🏀直播",
      "type": 3,
      "api": "./lib/drpy2.min.js",
      "changeable": 0,
      "gridview": 3,
      "style": {
        "type": "list"
      },
      "ext": "./lib/310直播.js"
    },
    {
      "key": "NT动漫",
      "name": "NT🎀动漫",
      "type": 3,
      "api": "./lib/drpy2.min.js",
      "searchable": 1,
      "quickSearch": 1,
      "filterable": 1,
      "changeable": 1,
      "ext": "http://fmys.top/lib/ntdm.js"
    },
    {
      "key": "路漫漫动漫",
      "name": "路漫漫🧁动漫",
      "type": 3,
      "api": "./lib/drpy2.min.js",
      "searchable": 1,
      "quickSearch": 1,
      "filterable": 1,
      "ext": "./lib/lu.js"
    },
    {
      "key": "樱花动漫",
      "name": "樱花🌸动漫",
      "type": 3,
      "api": "csp_XBPQ",
      "searchable": 1,
      "quickSearch": 1,
      "filterable": 1,
      "ext": "./lib/yhdm.json"
    },
    {
      "key": "AnFuns动漫",
      "name": "AnFuns🎉动漫",
      "type": 3,
      "api": "./lib/drpy2.min.js",
      "searchable": 1,
      "quickSearch": 1,
      "filterable": 1,
      "ext": "./lib/AnFuns.js"
    },
    {
      "key": "csp_xifan",
      "name": "稀饭🍚动漫",
      "type": 3,
      "api": "csp_Xifan",
      "jar": "./lib/PandaQ240309.jar",
      "searchable": 1,
      "quickSearch": 1,
      "filterable": 1
    },
    {
      "key": "meowtv_a8yy",
      "name": "A8Y🎻音乐",
      "type": 3,
      "api": "./lib/drpy2.min.js",
      "searchable": 1,
      "quickSearch": 1,
      "filterable": 1,
      "ext": "./lib/a8yinyue.js"
    },
    {
      "key": "虎牙直播js",
      "name": "虎牙🐯直播",
      "type": 3,
      "api": "./lib/drpy2.min.js",
      "ext": "./lib/huya2.js",
      "style": {
        "type": "rect",
        "ratio": 1.755
      },
      "searchable": 0,
      "quickSearch": 0,
      "changeable": 0
    },
    {
      "key": "斗鱼js",
      "name": "斗鱼🐟直播",
      "type": 3,
      "api": "./lib/drpy2.min.js",
      "ext": "./lib/douyuzhibo.js",
      "jar": "./lib/dongchenok.jar",
      "style": {
        "type": "rect",
        "ratio": 1.755
      },
      "searchable": 0,
      "quickSearch": 0,
      "changeable": 0,
      "timeout": 10
    },
    {
      "key": "kuaishouzb",
      "name": "快手😎直播",
      "type": 3,
      "api": "csp_KsLive",
      "jar": "./lib/dongchenok.jar",
      "searchable": 0,
      "quickSearch": 0,
      "filterable": 1,
      "style": {
        "type": "rect",
        "ratio": 1.433
      },
      "timeout": 10
    },
    {
      "key": "非凡资源",
      "name": "非凡🌈超清",
      "type": 1,
      "api": "http://cj.ffzyapi.com/api.php/provide/vod/",
      "searchable": 1,
      "changeable": 1,
      "categories": [
        "国产剧",
        "韩国剧",
        "泰国剧",
        "欧美剧",
        "香港剧",
        "台湾剧",
        "日本剧",
        "海外剧",
        "国产动漫",
        "日韩动漫",
        "欧美动漫",
        "港台动漫",
        "海外动漫",
        "动作片",
        "喜剧片",
        "科幻片",
        "恐怖片",
        "爱情片",
        "剧情片",
        "战争片",
        "记录片",
        "大陆综艺",
        "港台综艺",
        "日韩综艺",
        "欧美综艺"
      ]
    },
    {
      "key": "bili",
      "name": "哔哔🅱合集",
      "type": 3,
      "api": "csp_Bili",
      "jar": "./lib/dongchenok.jar",
      "searchable": 1,
      "quickSearch": 1,
      "filterable": 1,
      "style": {
        "type": "rect",
        "ratio": 1.433
      },
      "ext": {
        "cookie": "file://TV/bili_cookie.txt",
        "json": "./lib/bili.json"
      },
      "timeout": 20
    },
    {
      "key": "biliych",
      "name": "哔哔🅱歌曲",
      "type": 3,
      "api": "csp_Bili",
      "jar": "./lib/dongchenok.jar",
      "searchable": 0,
      "quickSearch": 1,
      "filterable": 1,
      "style": {
        "type": "rect",
        "ratio": 1.433
      },
      "ext": {
        "cookie": "file://TV/bili_cookie.txt",
        "json": "./lib/biliych.json"
      },
      "timeout": 20
    },
    {
      "key": "dr_兔小贝",
      "name": "儿童📚兔小贝",
      "type": 3,
      "api": "./lib/drpy2.min.js",
      "ext": "./lib/兔小贝.js",
      "style": {
        "type": "rect",
        "ratio": 1.597
      },
      "searchable": 0,
      "quickSearch": 0,
      "changeable": 0
    },
    {
      "key": "少儿教育",
      "name": "少儿📚教育",
      "type": 3,
      "api": "csp_Bili",
      "jar": "./lib/dongchen.jar",
      "style": {
        "type": "rect",
        "ratio": 1.597
      },
      "searchable": 0,
      "quickSearch": 0,
      "changeable": 0,
      "ext": "./lib/少儿教育.json"
    },
    {
      "key": "小学课堂",
      "name": "小学📚课堂",
      "type": 3,
      "api": "csp_Bili",
      "jar": "./lib/dongchen.jar",
      "style": {
        "type": "rect",
        "ratio": 1.597
      },
      "searchable": 0,
      "quickSearch": 0,
      "changeable": 0,
      "ext": "./lib/小学课堂.json"
    },
    {
      "key": "初中课堂",
      "name": "初中📚课堂",
      "jar": "./lib/dongchen.jar",
      "type": 3,
      "api": "csp_Bili",
      "style": {
        "type": "rect",
        "ratio": 1.597
      },
      "searchable": 0,
      "quickSearch": 0,
      "changeable": 0,
      "ext": "./lib/初中课堂.json"
    },
    {
      "key": "高中教育",
      "name": "高中📚课堂",
      "type": 3,
      "api": "csp_Bili",
      "jar": "./lib/dongchen.jar",
      "style": {
        "type": "rect",
        "ratio": 1.597
      },
      "searchable": 0,
      "quickSearch": 0,
      "changeable": 0,
      "ext": "./lib/高中课堂.json"
    },
    {
      "key": "csp_Bili短剧",
      "name": "哔哩🅱️短剧",
      "type": 3,
      "api": "csp_Bili",
      "searchable": 0,
      "quickSearch": 0,
      "filterable": 1,
      "ext": "./lib/Bili短剧.json"
    },
    {
      "key": "csp_XYQHikerAL_云盘资源",
      "name": "云盘🚲资源",
      "type": 3,
      "api": "csp_XYQHikerAL",
      "jar": "./lib/dongchen.jar",
      "searchable": 1,
      "quickSearch": 1,
      "filterable": 1,
      "ext": "./lib/yunpan.json"
    },
    {
      "key": "csp_Yisou",
      "name": "易搜🛸网盘",
      "type": 3,
      "api": "csp_Yisou",
      "jar": "./lib/dongchen.jar",
      "searchable": 1,
      "quickSearch": 1,
      "filterable": 0,
      "ext": "http://127.0.0.1:9978/file/TV/token.txt"
    },
    {
       "key": "秒搜",
       "name": "秒搜🛹网盘",
       "type": 3,
       "api": "csp_MiaoSou",
       "jar": "./lib/pg0426.jar",
       "timeout": 60,
       "ext": "./lib/tokenm.json"
        },
    {
      "key": "Funletu",
      "name": "趣盘搜🛵夸克",
      "type": 3,
      "api": "csp_Funletu",
      "jar": "./lib/PG.jar",
      "quickSearch": 1,
      "changeable": 1,
      "filterable": 1,
      "timeout": 60,
      "ext": "./lib/tokenm.json"
    },
    {
      "key": "混合盘",
      "name": "混合盘🚂网盘",
      "type": 3,
      "api": "csp_HunHePan",
      "jar": "./lib/pg0316.jar",
      "timeout": 60,
      "ext": "./lib/tokenm.json"
    },
    {
      "key": "csp_XYQHikerAL_影搜",
      "name": "影搜⛵网盘",
      "type": 3,
      "api": "csp_XYQHikerAL",
      "jar": "./lib/dongchen.jar",
      "searchable": 1,
      "quickSearch": 1,
      "filterable": 1,
      "ext": "./lib/yingso.json"
    },
    {
      "key": "csp_XYQHiker_盘搜索",
      "name": "盘搜🚢网盘",
      "type": 3,
      "api": "csp_XYQHiker",
      "jar": "./lib/dongchen.jar",
      "searchable": 1,
      "quickSearch": 1,
      "filterable": 1,
      "ext": "./lib/pansearch.json"
    },
    {
      "key": "csp_Upyunso",
      "name": "UP云搜🚃网盘",
      "type": 3,
      "api": "csp_Upyunso",
      "jar": "./lib/dongchen.jar",
      "searchable": 1,
      "quickSearch": 1,
      "filterable": 0,
      "ext": "http://127.0.0.1:9978/file/XYQTVBox/alitoken.txt"
    },
    {
      "key": "csp_AliPS",
      "name": "喵狸🚂盘搜",
      "type": 3,
      "api": "csp_AliPS",
      "jar": "./lib/dongchen.jar",
      "searchable": 1,
      "quickSearch": 1,
      "filterable": 0,
      "ext": "http://127.0.0.1:9978/file/XYQTVBox/alitoken.txt"
    },
    {
      "key": "csp_XYQHikerAL_77zys",
      "name": "影视🚄网盘",
      "type": 3,
      "api": "csp_XYQHikerAL",
      "jar": "./lib/dongchen.jar",
      "searchable": 1,
      "quickSearch": 1,
      "filterable": 1,
      "ext": "./lib/77zys.json"
    },
    {
      "key": "Gitcafe",
      "name": "小纸条🚀云盘",
      "type": 3,
      "api": "csp_Gitcafe",
      "jar": "./lib/dongchen.jar",
      "searchable": 1,
      "quickSearch": 1,
      "filterable": 1,
      "ext": "http://127.0.0.1:9978/file/TVBox/token.txt"
    },
    {
      "key": "csp_XYQHikerAL_阿里云盘网",
      "name": "阿里🚁云盘",
      "type": 3,
      "api": "csp_XYQHikerAL",
      "jar": "./lib/dongchen.jar",
      "searchable": 1,
      "quickSearch": 1,
      "filterable": 1,
      "ext": "./lib/alypw.json"
    },
    {
      "key": "盘Se",
      "name": "盘Se🚌弹幕",
      "type": 3,
      "api": "csp_PanSearch",
      "jar": "./lib/dongchenzx.jar",
      "searchable": 1,
      "filterable": 0,
      "changeable": 0,
      "ext": {
        "token": "file://TV/ali_token.txt",
        "danmu": true
      },
      "timeout": 15
    },
    {
      "key": "Up云搜",
      "name": "Up搜🚛弹幕",
      "type": 3,
      "api": "csp_Upys",
      "jar": "./lib/dongchenzx.jar",
      "searchable": 1,
      "filterable": 0,
      "changeable": 0,
      "ext": {
        "token": "file://TV/ali_token.txt",
        "danmu": true
      },
      "timeout": 15
    },
    {
      "key": "盘搜",
      "name": "盘搜🚟弹幕",
      "type": 3,
      "api": "csp_PanSou",
      "jar": "./lib/dongchenzx.jar",
      "searchable": 1,
      "filterable": 0,
      "changeable": 0,
      "ext": {
        "token": "file://TV/ali_token.txt",
        "danmu": true
      },
      "timeout": 15
    },
    {
      "key": "ext_live_protocol",
      "name": "免费接口，自娱制作",
      "type": 3,
      "api": "csp_DuoX",
      "searchable": 1,
      "quickSearch": 1,
      "changeable": 1
    },
    {
      "key": "cc",
      "name": "请勿相信视频中任何广告",
      "type": 3,
      "api": "csp_XPath",
      "searchable": 0,
      "quickSearch": 0
    },
    {
      "key": "hl",
      "name": "06.17接口仅测试使用",
      "type": 3,
      "api": "csp_XPath",
      "searchable": 0,
      "quickSearch": 0
    }
  ],
  "parses": [
    {
      "name": "聚合1",
      "type": 3,
      "url": "Demo"
    },
    {
      "name": "聚合2",
      "type": 3,
      "url": "Web"
    },
    {
      "name": "东辰影视",
      "type": 1,
      "url": "http://xiutan.shiyifacai.com/json/qingfeng.php?url=",
      "ext": {
        "flag": [
          "seven"
        ],
        "header": {
          "User-Agent": "Lavf/58.12.100"
        }
      }
    },
    {
      "name": "嗅探",
      "type": 0,
      "url": "https://jx.haokantv.cyou/player/?url="
    },
    {
      "name": "嗅探一",
      "type": 0,
      "url": "http://bfqjc.xwyxpw.cn/?url="
    },
    {
      "name": "嗅探二",
      "type": 0,
      "url": "https://jx.jsonplayer.com/player/?url="
    },
    {
      "name": "嗅探三",
      "type": 0,
      "url": "https://jx.bozrc.com:4433/player/?url="
    },
    {
      "name": "嗅探四",
      "type": 0,
      "url": "https://jx.777jiexi.com/player/?url="
    },
    {
      "name": "嗅探五",
      "type": 0,
      "url": "https://jx.xmflv.com/?url="
    }
  ],
  "rules": [
    {
      "name": "量子",
      "hosts": [
        "vip.lz",
        "hd.lz"
      ],
      "regex": [
        "#EXT-X-DISCONTINUITY\\r*\\n*#EXTINF:6.433333,[\\s\\S]*?#EXT-X-DISCONTINUITY",
        "#EXTINF.*?\\s+.*?1o.*?\\.ts\\s+"
      ]
    },
    {
      "name": "非凡",
      "hosts": [
        "vip.ffzy",
        "hd.ffzy"
      ],
      "regex": [
        "#EXT-X-DISCONTINUITY\\r*\\n*#EXTINF:6.666667,[\\s\\S]*?#EXT-X-DISCONTINUITY",
        "#EXTINF.*?\\s+.*?1o.*?\\.ts\\s+"
      ]
    },
    {
      "name": "火山",
      "hosts": [
        "huoshan.com"
      ],
      "regex": [
        "item_id="
      ]
    },
    {
      "name": "抖音",
      "hosts": [
        "douyin.com"
      ],
      "regex": [
        "is_play_url="
      ]
    },
    {
      "name": "抖音嗅探",
      "hosts": [
        "www.sharenice.net"
      ],
      "rule": [
        "douyin.com",
        "/play/"
      ]
    }
  ],
  "lives": [
    {
      "name": "live",
      "type": 0,
      "url": "",
      "playerType": 1,
      "epg": "http://epg.112114.xyz/?ch={name}&date={date}",
      "logo": "https://epg.112114.xyz/logo/{name}.png"
    }
  ],
  "flags": [
    "youku",
    "优酷",
    "优 酷",
    "优酷视频",
    "qq",
    "腾讯",
    "腾 讯",
    "腾讯视频",
    "iqiyi",
    "qiyi",
    "奇艺",
    "爱奇艺",
    "爱 奇 艺",
    "m1905",
    "xigua",
    "letv",
    "leshi",
    "乐视",
    "乐 视",
    "sohu",
    "搜狐",
    "搜 狐",
    "搜狐视频",
    "tudou",
    "pptv",
    "mgtv",
    "芒果",
    "imgo",
    "芒果TV",
    "芒 果 T V",
    "bilibili",
    "哔 哩",
    "哔 哩 哔 哩"
  ],
  "ads": [
    "wan.51img1.com",
    "www.72418.com",
    "iqiyi.hbuioo.com",
    "vip.ffzyad.com",
    "https://lf1-cdn-tos.bytegoofy.com/obj/tos-cn-i-dy/455ccf9e8ae744378118e4bd289288dd"
  ]
}